<?xml version="1.0" encoding="utf-8"?>
<!-- Svg Vector Icons : http://www.onlinewebfonts.com/icon -->
<!DOCTYPE svg PUBLIC "-//W3C//DTD SVG 1.1//EN" "http://www.w3.org/Graphics/SVG/1.1/DTD/svg11.dtd">
<svg version="1.1" xmlns="http://www.w3.org/2000/svg" x="0px" y="0px" viewBox="0 0 1000 1000"
     enable-background="new 0 0 1000 1000" xml:space="preserve">
<metadata> Svg Vector Icons : http://www.onlinewebfonts.com/icon </metadata>
<g><g><path d="M213,500c0,159.2,129.1,288.2,288.2,288.2c159.2,0,288.2-129,288.2-288.2c0-159.2-129-288.2-288.2-288.2C342,211.8,213,340.8,213,500z M501.2,10l-81.1,162.1h162.1L501.2,10z M847.5,152.5l-172,57.3l114.6,114.6L847.5,152.5z M326.8,209.8l-171.9-57.3l57.3,172L326.8,209.8L326.8,209.8z M172.1,417.7L10,498.8l162.1,81.1V417.7L172.1,417.7z M827.9,582.3L990,501.2l-162.1-81.1V582.3z M501.2,990l81.1-162.1H420.1L501.2,990z M675.6,790.2l172,57.3l-57.3-172L675.6,790.2L675.6,790.2z M154.9,847.5l172-57.3L212.2,675.6L154.9,847.5z"/></g></g>
</svg>